[gd_scene load_steps=3 format=2]

[ext_resource path="res://assets/tiles/player.png" type="Texture" id=1]
[ext_resource path="res://Player.gd" type="Script" id=2]

[node name="Player" type="Node2D"]
script = ExtResource( 2 )

[node name="Sprite" type="Sprite" parent="."]
texture = ExtResource( 1 )
offset = Vector2( 16, 16 )

[node name="Camera2D" type="Camera2D" parent="."]
current = true
